{
	"id": "369b9e7e-cbb7-4dca-9146-c32affe022f9",
	"name": "API ",
	"values": [
		{
			"key": "baseURL",
			"value": "https://pokeapi.co/api",
			"enabled": true
		}
		
	],
	"_postman_variable_scope": "environment",
	"_postman_exported_at": "2020-09-14T20:34:13.753Z",
	"_postman_exported_using": "Postman/7.32.0"
}
